﻿{
  "$schema": "http://json.schemastore.org/launchsettings.json",
  "profiles": {
    "$$PROJECT$$": {
      "commandName": "Project",
      "launchBrowser": true,
      "launchUrl": "Values/$$TABLE$$",
      "applicationUrl": "https://localhost:$$HTTPS_PORT$$;http://localhost:$$HTTP_PORT$$",
      "environmentVariables": {
        "ASPNETCORE_ENVIRONMENT": "Development"
      }
    },
	"$$PROJECT$$_Swagger": {
      "commandName": "Project",
      "launchBrowser": true,
      "launchUrl": "swagger",
      "applicationUrl": "https://localhost:$$HTTPS_PORT$$;http://localhost:$$HTTP_PORT$$",
      "environmentVariables": {
        "ASPNETCORE_ENVIRONMENT": "Development"
      }
    }
  }
}